{"porpuestas" :[{
    "idPropuesta": "CD89675432",
    "listaIntrumentos": "BMERLIQ",
    "montoMax": 10000,
    "montoMin": 20000,
    "montoMax": 10000,
    "plazo": 120,
    "tasa": 2.5,
    "perfilRiesgo": "Bajo"
     },
     
 
{
  "idPropuesta": "CD89675432",
  "listaIntrumentos": "+BMERLIQ",
  "montoMax": 0,
  "montoMin": 7000,
  "montoInv": 15000,
  "plazo": 30,
  "tasa": 1.2,
  "perfilRiesgo": "Medio"
     }, 
{
  "idPropuesta": "CD89675432",
  "listaIntrumentos": "NASDAQ",
  "montoMax": 0,
  "montoMin": 3000,
  "montoInv": 15000,
  "plazo": 90,
  "tasa": 3.6,
  "perfilRiesgo": "Alto"
      },
{
  "idPropuesta": "CD89675432",
  "listaIntrumentos": "BBVALIQ PV",
  "montoMax": 10000,
  "montoMin": 15000,
  "montoInv": 10000,
  "plazo": 30,
  "tasa": 1.90,
  "perfilRiesgo": "Bajo"
       }, 
{
  "idPropuesta": "CD89675432",
  "listaIntrumentos": "BBVAPYM PF4",
  "montoMax": ,
  "montoMin": 15000,
  "montoInv": 10000,
  "plazo": 30,
  "tasa": 1.77,
  "perfilRiesgo": "Bajo"
                 
}
]
}